beautifulsoup4==4.5.1
bs4==0.0.1
click==6.6
cycler==0.10.0
Flask==0.11.1
itsdangerous==0.24
Jinja2==2.8
MarkupSafe==0.23
matplotlib==1.5.3
numpy==1.11.2
pyparsing==2.1.10
python-dateutil==2.6.0
pytz==2016.10
requests==2.12.3
six==1.10.0
SQLAlchemy==1.1.4
Werkzeug==0.11.11
